EESchema Schematic File Version 4
EELAYER 30 0
EELAYER END
$Descr A4 11693 8268
encoding utf-8
Sheet 1 1
Title ""
Date ""
Rev ""
Comp ""
Comment1 ""
Comment2 ""
Comment3 ""
Comment4 ""
$EndDescr
Wire Wire Line
	6000 1200 6600 1200
Wire Wire Line
	6800 3200 6600 3200
Wire Wire Line
	6600 3200 6600 2600
Wire Wire Line
	6600 2600 6800 2600
Wire Wire Line
	6600 2600 6600 1300
Wire Wire Line
	7000 1300 6600 1300
Wire Wire Line
	6600 1300 6600 1200
Wire Wire Line
	8200 1100 8200 800 
Wire Wire Line
	8200 800  6600 800 
Wire Wire Line
	6600 800  6600 1200
Text Label 6200 1200 0    28   ~ 0
VDD
Connection ~ 6600 2600
Connection ~ 6600 1200
Connection ~ 6600 1300
Wire Wire Line
	8400 1200 8700 1200
Wire Wire Line
	8200 1300 8400 1300
Wire Wire Line
	8400 1300 8400 1200
Wire Wire Line
	7000 1100 7000 900 
Wire Wire Line
	7000 900  8400 900 
Wire Wire Line
	8400 900  8400 1200
Text Label 8500 1200 0    70   ~ 0
VCC
Connection ~ 8400 1200
Wire Wire Line
	6500 3200 6300 3200
Text Label 6300 3200 0    28   ~ 0
VCC
Wire Wire Line
	6600 3800 6400 3800
Text Label 6400 3800 0    28   ~ 0
VCC
Wire Wire Line
	3900 5900 3800 5900
Wire Wire Line
	3800 5900 3800 6300
Wire Wire Line
	4300 6100 4300 6300
Wire Wire Line
	4300 6500 4300 6300
Wire Wire Line
	3800 6300 4300 6300
Wire Wire Line
	3800 5900 3100 5900
Wire Wire Line
	3100 5900 3100 5600
Wire Wire Line
	3500 5400 3200 5400
Wire Wire Line
	3200 5400 3200 5600
Wire Wire Line
	3200 5600 3100 5600
Wire Wire Line
	3600 6300 3800 6300
Connection ~ 3800 5900
Text Label 3800 6200 0    28   ~ 0
VCC
Connection ~ 4300 6300
Connection ~ 3100 5600
Connection ~ 3800 6300
Wire Wire Line
	6000 1800 7600 1800
Wire Wire Line
	7600 1800 7600 1700
Wire Wire Line
	7900 1800 7600 1800
Text Label 6300 1800 0    28   ~ 0
GND
Connection ~ 7600 1800
Wire Wire Line
	5200 5900 5300 5900
Wire Wire Line
	5800 5900 5600 5900
Wire Wire Line
	5600 5900 5300 5900
Wire Wire Line
	4600 6100 4600 6300
Wire Wire Line
	4600 6500 4600 6300
Wire Wire Line
	4600 6300 5300 6300
Wire Wire Line
	5300 6300 5300 5900
Wire Wire Line
	5600 5800 5600 5900
Connection ~ 5300 5900
Text Label 5300 6100 0    28   ~ 0
GND
Connection ~ 4600 6300
Connection ~ 5600 5900
Wire Wire Line
	3400 4800 3400 4600
Wire Wire Line
	3400 4600 3600 4600
Wire Wire Line
	3600 4600 3900 4600
Wire Wire Line
	3600 4700 3600 4600
Text Label 3750 4600 0    28   ~ 0
GND
Connection ~ 3600 4600
Wire Wire Line
	3700 1800 4300 1800
Wire Wire Line
	4300 1800 4300 2000
Wire Wire Line
	4300 2000 8100 2000
Wire Wire Line
	6800 3400 6600 3400
Wire Wire Line
	6600 3400 6300 3400
Text Label 6400 3400 0    28   ~ 0
GPIO2
Connection ~ 6600 3400
Wire Wire Line
	6200 5700 5800 5700
Wire Wire Line
	5800 5700 5200 5700
Wire Wire Line
	5800 5700 5800 5400
Connection ~ 5800 5700
Text Label 5750 5250 3    28   ~ 0
GPIO2
Wire Wire Line
	6800 2800 6500 2800
Wire Wire Line
	6500 2800 6300 2800
Text Label 6300 2800 0    28   ~ 0
GPIO0
Connection ~ 6500 2800
Wire Wire Line
	5200 5600 5900 5600
Wire Wire Line
	5900 5600 5900 5400
Wire Wire Line
	6800 5600 5900 5600
Connection ~ 5900 5600
Text Label 5900 5400 1    28   ~ 0
GPIO0
Wire Wire Line
	4600 1800 4400 1800
Wire Wire Line
	3700 1400 4100 1400
Wire Wire Line
	4100 1400 4400 1400
Wire Wire Line
	4400 1400 4400 1800
Wire Wire Line
	7600 3400 7800 3400
Wire Wire Line
	7800 3600 7800 3400
Wire Wire Line
	7800 3600 6000 3600
Wire Wire Line
	6000 3600 6000 2500
Wire Wire Line
	6000 2500 5800 2500
Wire Wire Line
	5800 2100 4200 2100
Wire Wire Line
	4200 2100 4200 2000
Wire Wire Line
	4200 2000 3700 2000
Wire Wire Line
	5800 2500 5800 2100
Wire Wire Line
	7800 3400 8400 3400
Wire Wire Line
	8400 3400 8400 2800
Wire Wire Line
	3700 2200 4100 2200
Wire Wire Line
	4100 2200 8100 2200
Wire Wire Line
	8100 2800 7600 2800
Wire Wire Line
	8100 2200 8100 2800
Wire Wire Line
	8400 2800 8100 2800
Wire Wire Line
	4100 1400 4100 2200
Text Label 4400 1600 1    28   ~ 0
AC_2
Text Label 7600 3400 0    28   ~ 0
AC_2
Connection ~ 7800 3400
Text Label 7600 2800 0    28   ~ 0
AC_2
Connection ~ 8100 2800
Connection ~ 4100 1400
Connection ~ 4100 2200
Wire Wire Line
	3700 3100 4000 3100
Text Label 3900 3100 0    70   ~ 0
AC_2
Text Label 3900 3300 0    70   ~ 0
K1_2
Wire Wire Line
	3700 2900 4100 2900
Text Label 3900 2900 0    70   ~ 0
K1_2
Wire Wire Line
	3700 3500 4000 3500
Text Label 3900 3500 0    70   ~ 0
K1_2
Wire Wire Line
	3700 2400 7900 2400
Wire Wire Line
	7900 2600 7900 2400
Wire Wire Line
	7600 2600 7900 2600
Text Label 7600 2600 0    28   ~ 0
K3_1
Wire Wire Line
	3700 3700 4000 3700
Text Label 3900 3700 0    70   ~ 0
K3_1
Wire Wire Line
	5200 4900 5200 5200
Wire Wire Line
	5500 4900 5500 5300
Wire Wire Line
	5500 5300 5200 5300
Wire Wire Line
	3100 5200 3400 5200
Wire Wire Line
	3500 5500 3400 5500
Wire Wire Line
	3400 5500 3400 5200
Wire Wire Line
	3400 5200 3600 5200
Wire Wire Line
	3600 5200 3900 5200
Wire Wire Line
	3600 5100 3600 5200
Connection ~ 3400 5200
Connection ~ 3600 5200
Wire Wire Line
	6200 4900 5900 4900
Text Label 5900 4900 0    28   ~ 0
GPIO12
Wire Wire Line
	3900 5700 3800 5700
Text Label 3800 5700 0    28   ~ 0
GPIO12
Wire Wire Line
	6800 4500 6500 4500
Text Label 6350 4500 0    28   ~ 0
GPIO13
Wire Wire Line
	3900 5800 3800 5800
Text Label 3800 5800 0    28   ~ 0
GPIO13
Wire Wire Line
	6800 4700 6500 4700
Text Label 6500 4700 0    28   ~ 0
GPIO5
Wire Wire Line
	5200 5500 5300 5500
Text Label 5300 5500 0    28   ~ 0
GPIO5
Wire Wire Line
	6800 4900 6500 4900
Text Label 6500 4900 0    28   ~ 0
GPIO4
Wire Wire Line
	5200 5400 5300 5400
Text Label 5300 5400 0    28   ~ 0
GPIO4
Wire Wire Line
	3900 5300 3700 5300
Text Label 3900 5300 0    28   ~ 0
ADC
Wire Wire Line
	6200 4500 5900 4500
Text Label 5800 4500 0    28   ~ 0
ADC
Wire Wire Line
	3900 5600 3800 5600
Text Label 3800 5600 0    28   ~ 0
GPIO14
Wire Wire Line
	6200 4700 5900 4700
Text Label 5700 4700 0    28   ~ 0
GPIO14
Wire Wire Line
	7600 3200 7800 3200
Wire Wire Line
	7800 3200 7800 3000
Wire Wire Line
	7800 3000 5200 3000
Text Label 7600 3200 0    28   ~ 0
K1_1
Wire Wire Line
	3700 2700 4000 2700
Text Label 3900 2700 0    70   ~ 0
K1_1
Wire Wire Line
	4000 1200 4600 1200
Wire Wire Line
	4000 1600 4000 1200
Wire Wire Line
	3700 1600 4000 1600
Text Label 4100 1200 0    28   ~ 0
AC1
$Comp
L Esp07_G3MB202P-eagle-import:HLK-PM03 K1_2
U 1 1 1FB5D5CC
P 5900 1500
F 0 "K1_2" H 5900 1500 50  0001 C CNN
F 1 "HLK-PM03" H 5900 1500 50  0001 C CNN
F 2 "Esp07_G3MB202P:HLK-PM03" H 5900 1500 50  0001 C CNN
F 3 "" H 5900 1500 50  0001 C CNN
	1    5900 1500
	1    0    0    -1  
$EndComp
$Comp
L Esp07_G3MB202P-eagle-import:REG1117 IC1
U 1 1 23D58D2A
P 7600 1200
F 0 "IC1" H 7300 1425 59  0000 L BNN
F 1 "REG1117" H 7400 1300 59  0000 L BNN
F 2 "Esp07_G3MB202P:SOT223" H 7600 1200 50  0001 C CNN
F 3 "" H 7600 1200 50  0001 C CNN
	1    7600 1200
	1    0    0    -1  
$EndComp
$Comp
L Esp07_G3MB202P-eagle-import:R-EU_R0805 R1
U 1 1 7AC187B9
P 6500 3000
F 0 "R1" H 6350 3059 28  0000 L BNN
F 1 "1k-10k" H 6350 2870 28  0000 L BNN
F 2 "Esp07_G3MB202P:R0805" H 6500 3000 50  0001 C CNN
F 3 "" H 6500 3000 50  0001 C CNN
	1    6500 3000
	0    -1   -1   0   
$EndComp
$Comp
L Esp07_G3MB202P-eagle-import:R-EU_R0805 R2
U 1 1 088B19B9
P 6600 3600
F 0 "R2" H 6450 3659 28  0000 L BNN
F 1 "1k-10k" H 6450 3470 28  0000 L BNN
F 2 "Esp07_G3MB202P:R0805" H 6600 3600 50  0001 C CNN
F 3 "" H 6600 3600 50  0001 C CNN
	1    6600 3600
	0    -1   -1   0   
$EndComp
$Comp
L Esp07_G3MB202P-eagle-import:0R-JUMPA JMP1
U 1 1 F4352D4C
P 7000 1200
F 0 "JMP1" H 7100 1250 59  0001 L BNN
F 1 "0R-JUMPA" H 7000 1200 50  0001 C CNN
F 2 "Esp07_G3MB202P:A0R-JMP" H 7000 1200 50  0001 C CNN
F 3 "" H 7000 1200 50  0001 C CNN
	1    7000 1200
	1    0    0    -1  
$EndComp
$Comp
L Esp07_G3MB202P-eagle-import:0R-JUMPA JMP1
U 2 1 F4352D40
P 6900 1100
F 0 "JMP1" H 7000 1150 59  0001 L BNN
F 1 "0R-JUMPA" H 6900 1100 50  0001 C CNN
F 2 "Esp07_G3MB202P:A0R-JMP" H 6900 1100 50  0001 C CNN
F 3 "" H 6900 1100 50  0001 C CNN
	2    6900 1100
	1    0    0    -1  
$EndComp
$Comp
L Esp07_G3MB202P-eagle-import:0R-JUMPA JMP2
U 1 1 7B1D10C4
P 8200 1200
F 0 "JMP2" H 8300 1250 59  0001 L BNN
F 1 "0R-JUMPA" H 8200 1200 50  0001 C CNN
F 2 "Esp07_G3MB202P:A0R-JMP" H 8200 1200 50  0001 C CNN
F 3 "" H 8200 1200 50  0001 C CNN
	1    8200 1200
	-1   0    0    1   
$EndComp
$Comp
L Esp07_G3MB202P-eagle-import:0R-JUMPA JMP2
U 2 1 7B1D10C8
P 8300 1300
F 0 "JMP2" H 8400 1350 59  0001 L BNN
F 1 "0R-JUMPA" H 8300 1300 50  0001 C CNN
F 2 "Esp07_G3MB202P:A0R-JMP" H 8300 1300 50  0001 C CNN
F 3 "" H 8300 1300 50  0001 C CNN
	2    8300 1300
	-1   0    0    1   
$EndComp
$Comp
L Esp07_G3MB202P-eagle-import:PINHD-1X1 JP1
U 1 1 2C46B662
P 8000 1800
F 0 "JP1" H 7750 1925 59  0000 L BNN
F 1 "PINHD-1X1" H 7750 1600 59  0000 L BNN
F 2 "Esp07_G3MB202P:1X01" H 8000 1800 50  0001 C CNN
F 3 "" H 8000 1800 50  0001 C CNN
	1    8000 1800
	1    0    0    -1  
$EndComp
$Comp
L Esp07_G3MB202P-eagle-import:ESP12 U2
U 1 1 A1AF77BA
P 4600 5500
F 0 "U2" H 4100 5900 28  0000 L BNN
F 1 "ESP12" H 4100 4900 28  0000 L BNN
F 2 "Esp07_G3MB202P:ESP12" H 4600 5500 50  0001 C CNN
F 3 "" H 4600 5500 50  0001 C CNN
	1    4600 5500
	1    0    0    -1  
$EndComp
$Comp
L Esp07_G3MB202P-eagle-import:PINHD-1X1 TX1
U 1 1 D5BFF844
P 5300 4900
F 0 "TX1" H 5050 5025 28  0000 L BNN
F 1 "PINHD-1X1" H 5050 4700 20  0000 L BNN
F 2 "Esp07_G3MB202P:1X01" H 5300 4900 50  0001 C CNN
F 3 "" H 5300 4900 50  0001 C CNN
	1    5300 4900
	1    0    0    -1  
$EndComp
$Comp
L Esp07_G3MB202P-eagle-import:PINHD-1X1 RX1
U 1 1 DA92EFCB
P 5600 4900
F 0 "RX1" H 5350 5025 28  0000 L BNN
F 1 "PINHD-1X1" H 5350 4700 20  0000 L BNN
F 2 "Esp07_G3MB202P:1X01" H 5600 4900 50  0001 C CNN
F 3 "" H 5600 4900 50  0001 C CNN
	1    5600 4900
	1    0    0    -1  
$EndComp
$Comp
L Esp07_G3MB202P-eagle-import:PINHD-1X1 GND1
U 1 1 639765D3
P 5900 5900
F 0 "GND1" H 5650 6025 28  0000 L BNN
F 1 "PINHD-1X1" H 5650 5700 20  0000 L BNN
F 2 "Esp07_G3MB202P:1X01" H 5900 5900 50  0001 C CNN
F 3 "" H 5900 5900 50  0001 C CNN
	1    5900 5900
	1    0    0    -1  
$EndComp
$Comp
L Esp07_G3MB202P-eagle-import:R-EU_R0805 R4
U 1 1 822489D2
P 3100 5400
F 0 "R4" H 3050 5359 28  0000 L BNN
F 1 "1k-10k" H 2950 5270 28  0000 L BNN
F 2 "Esp07_G3MB202P:R0805" H 3100 5400 50  0001 C CNN
F 3 "" H 3100 5400 50  0001 C CNN
	1    3100 5400
	0    1    1    0   
$EndComp
$Comp
L Esp07_G3MB202P-eagle-import:31-XX S3
U 1 1 B3507045
P 3400 5000
F 0 "S3" V 3150 4925 59  0001 L BNN
F 1 "31-XX" V 3250 5125 28  0000 L BNN
F 2 "Esp07_G3MB202P:B3F-31XX" H 3400 5000 50  0001 C CNN
F 3 "" H 3400 5000 50  0001 C CNN
	1    3400 5000
	1    0    0    -1  
$EndComp
$Comp
L Esp07_G3MB202P-eagle-import:C-EUC1206K C3
U 1 1 7850B144
P 4500 6100
F 0 "C3" V 4550 6250 28  0000 L BNN
F 1 "C-EUC1206K" V 5150 6550 28  0001 L BNN
F 2 "Esp07_G3MB202P:C1206K" H 4500 6100 50  0001 C CNN
F 3 "" H 4500 6100 50  0001 C CNN
	1    4500 6100
	0    1    1    0   
$EndComp
$Comp
L Esp07_G3MB202P-eagle-import:C-EUC1206K C4
U 1 1 A52F9EE0
P 4500 6300
F 0 "C4" H 4360 6115 28  0000 L BNN
F 1 "C-EUC1206K" V 4950 5200 28  0001 L BNN
F 2 "Esp07_G3MB202P:C1206K" H 4500 6300 50  0001 C CNN
F 3 "" H 4500 6300 50  0001 C CNN
	1    4500 6300
	0    1    1    0   
$EndComp
$Comp
L Esp07_G3MB202P-eagle-import:CPOL-EUCT7343 C5
U 1 1 4C5269F1
P 4500 6500
F 0 "C5" H 4545 6319 28  0000 L BNN
F 1 "CPOL-EUCT7343" V 4750 6100 28  0001 L BNN
F 2 "Esp07_G3MB202P:CT7343" H 4500 6500 50  0001 C CNN
F 3 "" H 4500 6500 50  0001 C CNN
	1    4500 6500
	0    1    1    0   
$EndComp
$Comp
L Esp07_G3MB202P-eagle-import:R-EU_R0805 R5
U 1 1 6BF47086
P 3700 5400
F 0 "R5" H 3650 5359 28  0000 L BNN
F 1 "10k" H 3550 5470 28  0000 L BNN
F 2 "Esp07_G3MB202P:R0805" H 3700 5400 50  0001 C CNN
F 3 "" H 3700 5400 50  0001 C CNN
	1    3700 5400
	1    0    0    -1  
$EndComp
$Comp
L Esp07_G3MB202P-eagle-import:R-EU_R0805 R6
U 1 1 D7DC0B0B
P 3700 5500
F 0 "R6" H 3650 5459 28  0000 L BNN
F 1 "470" H 3550 5370 28  0000 L BNN
F 2 "Esp07_G3MB202P:R0805" H 3700 5500 50  0001 C CNN
F 3 "" H 3700 5500 50  0001 C CNN
	1    3700 5500
	1    0    0    -1  
$EndComp
$Comp
L Esp07_G3MB202P-eagle-import:R-EU_R0805 R9
U 1 1 1A457F25
P 5400 5800
F 0 "R9" H 5350 5759 59  0000 L BNN
F 1 "10k" H 5250 5870 59  0000 L BNN
F 2 "Esp07_G3MB202P:R0805" H 5400 5800 50  0001 C CNN
F 3 "" H 5400 5800 50  0001 C CNN
	1    5400 5800
	1    0    0    -1  
$EndComp
$Comp
L Esp07_G3MB202P-eagle-import:PINHD-1X1 ADC1
U 1 1 78DD6FF1
P 6300 4500
F 0 "ADC1" H 6050 4625 28  0000 L BNN
F 1 "PINHD-1X1" H 5950 4550 28  0000 L BNN
F 2 "Esp07_G3MB202P:1X01" H 6300 4500 50  0001 C CNN
F 3 "" H 6300 4500 50  0001 C CNN
	1    6300 4500
	1    0    0    -1  
$EndComp
$Comp
L Esp07_G3MB202P-eagle-import:PINHD-1X1 UNK14
U 1 1 A9D0FF92
P 6300 4700
F 0 "UNK14" H 6050 4825 28  0000 L BNN
F 1 "PINHD-1X1" H 5950 4750 28  0000 L BNN
F 2 "Esp07_G3MB202P:1X01" H 6300 4700 50  0001 C CNN
F 3 "" H 6300 4700 50  0001 C CNN
	1    6300 4700
	1    0    0    -1  
$EndComp
$Comp
L Esp07_G3MB202P-eagle-import:PINHD-1X1 UNK12
U 1 1 C28B6CFC
P 6300 4900
F 0 "UNK12" H 6050 5025 28  0000 L BNN
F 1 "PINHD-1X1" H 5950 4850 28  0000 L BNN
F 2 "Esp07_G3MB202P:1X01" H 6300 4900 50  0001 C CNN
F 3 "" H 6300 4900 50  0001 C CNN
	1    6300 4900
	1    0    0    -1  
$EndComp
$Comp
L Esp07_G3MB202P-eagle-import:PINHD-1X1 UNK13
U 1 1 4D1E59B3
P 6900 4500
F 0 "UNK13" H 6650 4550 28  0000 L BNN
F 1 "PINHD-1X1" H 7000 4550 28  0000 L BNN
F 2 "Esp07_G3MB202P:1X01" H 6900 4500 50  0001 C CNN
F 3 "" H 6900 4500 50  0001 C CNN
	1    6900 4500
	1    0    0    -1  
$EndComp
$Comp
L Esp07_G3MB202P-eagle-import:PINHD-1X1 UNK5
U 1 1 74106D5B
P 6900 4700
F 0 "UNK5" H 6700 4750 28  0000 L BNN
F 1 "PINHD-1X1" H 7000 4700 28  0000 L BNN
F 2 "Esp07_G3MB202P:1X01" H 6900 4700 50  0001 C CNN
F 3 "" H 6900 4700 50  0001 C CNN
	1    6900 4700
	1    0    0    -1  
$EndComp
$Comp
L Esp07_G3MB202P-eagle-import:W237-3E X1
U 1 1 014E3B04
P 3500 2700
F 0 "X1" H 3450 2735 59  0000 R TNN
F 1 "W237-3E" H 3500 2800 59  0001 L BNN
F 2 "Esp07_G3MB202P:W237-3E" H 3500 2700 50  0001 C CNN
F 3 "" H 3500 2700 50  0001 C CNN
	1    3500 2700
	1    0    0    -1  
$EndComp
$Comp
L Esp07_G3MB202P-eagle-import:W237-3E X1
U 2 1 014E3B08
P 3500 2900
F 0 "X1" H 3450 2935 59  0000 R TNN
F 1 "W237-3E" H 3500 3000 59  0001 L BNN
F 2 "Esp07_G3MB202P:W237-3E" H 3500 2900 50  0001 C CNN
F 3 "" H 3500 2900 50  0001 C CNN
	2    3500 2900
	1    0    0    -1  
$EndComp
$Comp
L Esp07_G3MB202P-eagle-import:W237-3E X1
U 3 1 014E3B0C
P 3500 3100
F 0 "X1" H 3450 3135 59  0000 R TNN
F 1 "W237-3E" H 3500 3200 28  0000 L BNN
F 2 "Esp07_G3MB202P:W237-3E" H 3500 3100 50  0001 C CNN
F 3 "" H 3500 3100 50  0001 C CNN
	3    3500 3100
	1    0    0    -1  
$EndComp
$Comp
L Esp07_G3MB202P-eagle-import:W237-3E X2
U 1 1 016462AA
P 3500 3300
F 0 "X2" H 3450 3335 59  0000 R TNN
F 1 "W237-3E" H 3500 3400 59  0001 L BNN
F 2 "Esp07_G3MB202P:W237-3E" H 3500 3300 50  0001 C CNN
F 3 "" H 3500 3300 50  0001 C CNN
	1    3500 3300
	1    0    0    -1  
$EndComp
$Comp
L Esp07_G3MB202P-eagle-import:W237-3E X2
U 2 1 016462A6
P 3500 3500
F 0 "X2" H 3450 3535 59  0000 R TNN
F 1 "W237-3E" H 3500 3600 59  0001 L BNN
F 2 "Esp07_G3MB202P:W237-3E" H 3500 3500 50  0001 C CNN
F 3 "" H 3500 3500 50  0001 C CNN
	2    3500 3500
	1    0    0    -1  
$EndComp
$Comp
L Esp07_G3MB202P-eagle-import:W237-3E X2
U 3 1 016462A2
P 3500 3700
F 0 "X2" H 3450 3735 59  0000 R TNN
F 1 "W237-3E" H 3500 3800 28  0000 L BNN
F 2 "Esp07_G3MB202P:W237-3E" H 3500 3700 50  0001 C CNN
F 3 "" H 3500 3700 50  0001 C CNN
	3    3500 3700
	1    0    0    -1  
$EndComp
$Comp
L Esp07_G3MB202P-eagle-import:OMRON-G3MB-202P-SSR K2
U 1 1 DF5E86F8
P 7200 2700
F 0 "K2" H 6900 2950 28  0000 L BNN
F 1 "OMRON-G3MB-202P-SSR" H 6900 2400 28  0000 L BNN
F 2 "Esp07_G3MB202P:OMRON-G3MB-202P-SSR" H 7200 2700 50  0001 C CNN
F 3 "" H 7200 2700 50  0001 C CNN
	1    7200 2700
	1    0    0    -1  
$EndComp
$Comp
L Esp07_G3MB202P-eagle-import:OMRON-G3MB-202P-SSR K4
U 1 1 CACA025D
P 7200 3300
F 0 "K4" H 6900 3550 28  0000 L BNN
F 1 "OMRON-G3MB-202P-SSR" H 6900 3000 28  0000 L BNN
F 2 "Esp07_G3MB202P:OMRON-G3MB-202P-SSR" H 7200 3300 50  0001 C CNN
F 3 "" H 7200 3300 50  0001 C CNN
	1    7200 3300
	1    0    0    -1  
$EndComp
$Comp
L Esp07_G3MB202P-eagle-import:PINHD-1X1 EMPT1
U 1 1 7599C93B
P 6900 5800
F 0 "EMPT1" H 6650 5925 28  0000 L BNN
F 1 "EMPTY" H 6650 5600 28  0000 L BNN
F 2 "Esp07_G3MB202P:1X01" H 6900 5800 50  0001 C CNN
F 3 "" H 6900 5800 50  0001 C CNN
	1    6900 5800
	1    0    0    -1  
$EndComp
$Comp
L Esp07_G3MB202P-eagle-import:PINHD-1X1 VCC1
U 1 1 28D65AF1
P 3500 6300
F 0 "VCC1" H 3250 6425 28  0000 L BNN
F 1 "PINHD-1X1" H 3250 6100 28  0000 L BNN
F 2 "Esp07_G3MB202P:1X01" H 3500 6300 50  0001 C CNN
F 3 "" H 3500 6300 50  0001 C CNN
	1    3500 6300
	-1   0    0    1   
$EndComp
$Comp
L Esp07_G3MB202P-eagle-import:PINHD-1X1 F1
U 1 1 C85DC20B
P 6900 5600
F 0 "F1" H 6650 5725 28  0000 L BNN
F 1 "F" H 6650 5400 28  0000 L BNN
F 2 "Esp07_G3MB202P:1X01" H 6900 5600 50  0001 C CNN
F 3 "" H 6900 5600 50  0001 C CNN
	1    6900 5600
	1    0    0    -1  
$EndComp
$Comp
L Esp07_G3MB202P-eagle-import:MOMENTARY-SWITCH-SPST-SMD-RIGHT-ANGLE S1
U 1 1 76EF8282
P 3600 4900
F 0 "S1" H 3600 4960 28  0000 C BNN
F 1 "MOMENTARY-SWITCH-SPST-SMD-RIGHT-ANGLE" V 3050 4800 31  0001 C TNN
F 2 "Esp07_G3MB202P:TACTILE_SWITCH_SMD_RIGHT_ANGLE" H 3600 4900 50  0001 C CNN
F 3 "" H 3600 4900 50  0001 C CNN
	1    3600 4900
	0    1    1    0   
$EndComp
Wire Wire Line
	4350 3300 4350 2500
Wire Wire Line
	4350 2500 3900 2500
Wire Wire Line
	3900 2500 3900 1650
Wire Wire Line
	3900 1650 4000 1650
Wire Wire Line
	4000 1650 4000 1600
Wire Wire Line
	3700 3300 4350 3300
Connection ~ 4000 1600
$Comp
L Esp07_G3MB202P-eagle-import:PINHD-1X1 UNK4
U 1 1 22126DD2
P 6900 4900
F 0 "UNK4" H 6700 4950 28  0000 L BNN
F 1 "PINHD-1X1" H 7000 4900 28  0000 L BNN
F 2 "Esp07_G3MB202P:1X01" H 6900 4900 50  0001 C CNN
F 3 "" H 6900 4900 50  0001 C CNN
	1    6900 4900
	1    0    0    -1  
$EndComp
$EndSCHEMATC
